{
  "login": {
    "accessToken": "eeiofjewoijfioewjfew"
  },
  "settings": {
    "theme": "dark",
    "fontSize": 30
  },
  "users": [
    {
      "name": "clementine Baucheee",
      "id": 3
    },
    {
      "id": 9,
      "name": "Glenna Reichert",
      "username": "Delphine",
      "email": "Chaim_McDermott@dana.io",
      "address": {
        "street": "Dayna Park",
        "suite": "Suite 449",
        "city": "Bartholomebury",
        "zipcode": "76495-3109",
        "geo": {
          "lat": "24.6463",
          "lng": "-168.8889"
        }
      },
      "phone": "(775)976-6794 x41206",
      "website": "conrad.com",
      "company": {
        "name": "Yost and Sons",
        "catchPhrase": "Switchable contextually-based project",
        "bs": "aggregate real-time technologies"
      }
    },
    {
      "name": "wefwe",
      "id": 1587114438693
    },
    {
      "name": "2132wefew",
      "id": 1587114438698
    },
    {
      "name": "pippo",
      "id": 1587114438706
    },
    {
      "name": "ewfewfew",
      "id": 1587114438707
    },
    {
      "name": "wefew",
      "id": 1587114438708
    },
    {
      "name": "1111",
      "id": 1587114438709
    },
    {
      "name": "wefewfwe",
      "id": 1587114438710
    }
  ],
  "posts": [
    {
      "userId": 3,
      "id": 21,
      "title": "asperiores ea ipsam voluptatibus modi minima quia sint",
      "body": "repellat aliquid praesentium dolorem quo\nsed totam minus non itaque\nnihil labore molestiae sunt dolor eveniet hic recusandae veniam\ntempora et tenetur expedita sunt"
    },
    {
      "userId": 3,
      "id": 22,
      "title": "dolor sint quo a velit explicabo quia nam",
      "body": "eos qui et ipsum ipsam suscipit aut\nsed omnis non odio\nexpedita earum mollitia molestiae aut atque rem suscipit\nnam impedit esse"
    },
    {
      "userId": 3,
      "id": 23,
      "title": "maxime id vitae nihil numquam",
      "body": "veritatis unde neque eligendi\nquae quod architecto quo neque vitae\nest illo sit tempora doloremque fugit quod\net et vel beatae sequi ullam sed tenetur perspiciatis"
    },
    {
      "userId": 3,
      "id": 24,
      "title": "autem hic labore sunt dolores incidunt",
      "body": "enim et ex nulla\nomnis voluptas quia qui\nvoluptatem consequatur numquam aliquam sunt\ntotam recusandae id dignissimos aut sed asperiores deserunt"
    },
    {
      "userId": 3,
      "id": 25,
      "title": "rem alias distinctio quo quis",
      "body": "ullam consequatur ut\nomnis quis sit vel consequuntur\nipsa eligendi ipsum molestiae et omnis error nostrum\nmolestiae illo tempore quia et distinctio"
    },
    {
      "userId": 3,
      "id": 26,
      "title": "est et quae odit qui non",
      "body": "similique esse doloribus nihil accusamus\nomnis dolorem fuga consequuntur reprehenderit fugit recusandae temporibus\nperspiciatis cum ut laudantium\nomnis aut molestiae vel vero"
    },
    {
      "userId": 3,
      "id": 27,
      "title": "quasi id et eos tenetur aut quo autem",
      "body": "eum sed dolores ipsam sint possimus debitis occaecati\ndebitis qui qui et\nut placeat enim earum aut odit facilis\nconsequatur suscipit necessitatibus rerum sed inventore temporibus consequatur"
    },
    {
      "userId": 3,
      "id": 28,
      "title": "delectus ullam et corporis nulla voluptas sequi",
      "body": "non et quaerat ex quae ad maiores\nmaiores recusandae totam aut blanditiis mollitia quas illo\nut voluptatibus voluptatem\nsimilique nostrum eum"
    },
    {
      "userId": 3,
      "id": 29,
      "title": "iusto eius quod necessitatibus culpa ea",
      "body": "odit magnam ut saepe sed non qui\ntempora atque nihil\naccusamus illum doloribus illo dolor\neligendi repudiandae odit magni similique sed cum maiores"
    },
    {
      "userId": 3,
      "id": 30,
      "title": "a quo magni similique perferendis",
      "body": "alias dolor cumque\nimpedit blanditiis non eveniet odio maxime\nblanditiis amet eius quis tempora quia autem rem\na provident perspiciatis quia"
    },
    {
      "userId": 9,
      "id": 81,
      "title": "tempora rem veritatis voluptas quo dolores vero",
      "body": "facere qui nesciunt est voluptatum voluptatem nisi\nsequi eligendi necessitatibus ea at rerum itaque\nharum non ratione velit laboriosam quis consequuntur\nex officiis minima doloremque voluptas ut aut"
    },
    {
      "userId": 9,
      "id": 82,
      "title": "laudantium voluptate suscipit sunt enim enim",
      "body": "ut libero sit aut totam inventore sunt\nporro sint qui sunt molestiae\nconsequatur cupiditate qui iste ducimus adipisci\ndolor enim assumenda soluta laboriosam amet iste delectus hic"
    },
    {
      "userId": 9,
      "id": 83,
      "title": "odit et voluptates doloribus alias odio et",
      "body": "est molestiae facilis quis tempora numquam nihil qui\nvoluptate sapiente consequatur est qui\nnecessitatibus autem aut ipsa aperiam modi dolore numquam\nreprehenderit eius rem quibusdam"
    },
    {
      "userId": 9,
      "id": 84,
      "title": "optio ipsam molestias necessitatibus occaecati facilis veritatis dolores aut",
      "body": "sint molestiae magni a et quos\neaque et quasi\nut rerum debitis similique veniam\nrecusandae dignissimos dolor incidunt consequatur odio"
    },
    {
      "userId": 9,
      "id": 85,
      "title": "dolore veritatis porro provident adipisci blanditiis et sunt",
      "body": "similique sed nisi voluptas iusto omnis\nmollitia et quo\nassumenda suscipit officia magnam sint sed tempora\nenim provident pariatur praesentium atque animi amet ratione"
    },
    {
      "userId": 9,
      "id": 86,
      "title": "placeat quia et porro iste",
      "body": "quasi excepturi consequatur iste autem temporibus sed molestiae beatae\net quaerat et esse ut\nvoluptatem occaecati et vel explicabo autem\nasperiores pariatur deserunt optio"
    },
    {
      "userId": 9,
      "id": 87,
      "title": "nostrum quis quasi placeat",
      "body": "eos et molestiae\nnesciunt ut a\ndolores perspiciatis repellendus repellat aliquid\nmagnam sint rem ipsum est"
    },
    {
      "userId": 9,
      "id": 88,
      "title": "sapiente omnis fugit eos",
      "body": "consequatur omnis est praesentium\nducimus non iste\nneque hic deserunt\nvoluptatibus veniam cum et rerum sed"
    },
    {
      "userId": 9,
      "id": 89,
      "title": "sint soluta et vel magnam aut ut sed qui",
      "body": "repellat aut aperiam totam temporibus autem et\narchitecto magnam ut\nconsequatur qui cupiditate rerum quia soluta dignissimos nihil iure\ntempore quas est"
    },
    {
      "userId": 9,
      "id": 90,
      "title": "ad iusto omnis odit dolor voluptatibus",
      "body": "minus omnis soluta quia\nqui sed adipisci voluptates illum ipsam voluptatem\neligendi officia ut in\neos soluta similique molestias praesentium blanditiis"
    }
  ]
}